<?xml version="1.0" encoding="UTF-8" standalone="no"?>
<svg xmlns="http://www.w3.org/2000/svg" height="200" width="200" version="1.1" viewBox="0 0 52.916665 52.916668">
 <g transform="translate(0 -244.08)">
  <g transform="matrix(.44881 0 0 -.44881 -140.06 425.91)">
   <path d="m382.95 396.2c-3.5771 0.00022-6.4769-2.8996-6.4766-6.4766 0.0003-2.598 1.553-4.9443 3.9442-5.9601v-50.759h-16.632v30.455c2.4701 0.9771 4.093 3.3633 4.0941 6.0196 0.0002 3.5771-2.8996 6.4769-6.4766 6.4766-3.5767-0.0003-6.4759-2.8999-6.4757-6.4766 0.003-2.6543 1.625-5.0382 4.0931-6.0149v-35.224h21.397v-21.801h-36.597c-0.948 2.5251-3.3621 4.1987-6.0596 4.2001-3.5766-0.0007-6.4759-2.8999-6.4757-6.4768 0.00029-3.5762 2.8994-6.4755 6.4757-6.4755 2.6148 0 4.9727 1.5731 5.9777 3.987h41.444v26.566h7.5944c0.9682-2.4891 3.3654-4.1288 6.0364-4.1288 3.5769 0 6.4768 2.8999 6.4768 6.4769-0.0007 3.5767-2.8999 6.4759-6.4768 6.4757-2.6415-0.002-5.0169-1.6082-6.0029-4.0587h-7.6279v50.646c2.5471 0.9357 4.2408 3.3601 4.243 6.0736 0.0003 3.5766-2.899 6.4763-6.4756 6.4766z" style="fill:#99def9"/>
   <path d="m380.74 354.49 4.7245-4.7258-2.695-2.693c0.15306-0.2933 0.29076-0.5918 0.41693-0.8961l6.7842 6.7856 7.9017-0.4214 5.796 5.7966-0.3388 6.3819-4.6713-4.672c-1.8145-1.8137-5.5917-2.2492-7.7487-0.0928-2.1558 2.1551-1.7203 5.935 0.0928 7.7487l4.6714 4.6701-6.3813 0.34135-5.7973-5.7966 0.42015-7.9024-6.7925-6.7925c0.31254-0.1281 0.62123-0.269 0.92287-0.4253z" style="fill:#fff200;fill-rule:evenodd"/>
   <path d="m365.12 329.42-4.7245 4.7245 2.693 2.6938c-0.153 0.29243-0.2907 0.59292-0.4169 0.89662l-6.7854-6.7862-7.9005 0.42208-5.7973-5.7968 0.34199-6.3826 4.6701 4.6727c0.89469 0.8934 2.2947 1.4661 3.7485 1.5293 1.5831 0.0699 3.0036-0.4418 3.9996-1.4377 0.9958-0.9959 1.5062-2.4164 1.437-4.0002-0.0646-1.453-0.6365-2.853-1.5306-3.7466l-4.6713-4.6724 6.3813-0.3396 5.7979 5.7966-0.4195 7.9006 6.7919 6.7956c-0.3138 0.12809-0.6225 0.26821-0.9229 0.42385z" style="fill:#fff200;fill-rule:evenodd"/>
   <path d="m372.93 336.77c2.8628 0 5.1927 2.3282 5.1927 5.1904 0 2.862-2.3299 5.19-5.1927 5.19-2.8602 0-5.1882-2.328-5.1882-5.19 0-2.8622 2.328-5.1904 5.1882-5.1904z" style="fill:#fff200"/>
   <path d="m372.93 348.28c3.4878 0 6.3237-2.8366 6.3237-6.3217 0-3.4858-2.8359-6.3213-6.3237-6.3213-3.484 0-6.3198 2.8355-6.3198 6.3213 0 3.4852 2.8359 6.3217 6.3198 6.3217zm-7.8063 4.6112-3.1247-3.1253 2.4984-2.499-0.21519-0.37599c-0.4182-0.72863-0.7397-1.5045-0.95681-2.305l-0.11272-0.4176h-3.5339v-4.4207h3.5339l0.11272-0.4183c0.21711-0.8006 0.53989-1.5756 0.95681-2.3052l0.21519-0.3744-2.4984-2.4997 3.1247-3.1242 2.4977 2.4985 0.374-0.2159c0.72436-0.4118 1.5005-0.7333 2.3101-0.9549l0.4163-0.1139v-3.5321h4.4203v3.5321l0.4169 0.1139c0.8044 0.2196 1.5806 0.5414 2.3075 0.9569l0.376 0.2134 2.4977-2.498 3.1247 3.1242-2.5003 2.4977 0.2145 0.376c0.4163 0.7275 0.7384 1.5038 0.9594 2.3081l0.1153 0.417h3.5295v4.4195h-3.532l-0.1147 0.4176c-0.2191 0.80451-0.5418 1.5821-0.9568 2.305l-0.2152 0.37599 2.5003 2.499-3.1247 3.1253-2.4977-2.4958-0.3753 0.21326c-0.7314 0.41629-1.5083 0.73779-2.3076 0.9549l-0.4175 0.114v3.5327h-4.4203v-3.5327l-0.4169-0.114c-0.80381-0.21903-1.5806-0.54053-2.3095-0.9549l-0.37527-0.21326z" style="fill:#fff;fill-rule:evenodd"/>
   <path d="m370.3 351.56 0.417 0.1139v3.5327h4.4203v-3.5327l0.4176-0.1139c0.7992-0.2171 1.5761-0.5387 2.3075-0.9549l0.3753-0.2133 2.4977 2.4958 3.1247-3.1253-2.5003-2.4991 0.2152-0.3759c0.415-0.7229 0.7378-1.5005 0.9568-2.305l0.1146-0.4176h3.5321v-4.4195h-3.5295l-0.1153-0.417c-0.2209-0.8043-0.5431-1.5806-0.9593-2.3081l-0.2146-0.376 2.5003-2.4977-3.1247-3.1242-2.4977 2.498-0.376-0.2134c-0.7269-0.4156-1.5031-0.7373-2.3075-0.9569l-0.4169-0.1139v-3.5321h-4.4203v3.5321l-0.4163 0.1139c-0.8095 0.2217-1.5857 0.5431-2.31 0.9549l-0.3741 0.2159-2.4977-2.4985-3.1247 3.1242 2.4984 2.4997-0.2152 0.3745c-0.417 0.7295-0.7397 1.5045-0.9569 2.3051l-0.1127 0.4182h-3.5339v4.4208h3.5339l0.1127 0.4176c0.2172 0.8005 0.5387 1.5763 0.9569 2.305l0.2152 0.3759-2.4984 2.4991 3.1247 3.1253 2.4964-2.4958 0.3754 0.2133c0.7287 0.4143 1.5056 0.7358 2.3093 0.9549zm13.611 7.4521-0.4201 7.9024 5.7972 5.7966 6.3813-0.34136-4.6713-4.6701c-1.8131-1.8137-2.2486-5.5936-0.0929-7.7487 2.157-2.1564 5.9343-1.7209 7.7487 0.0929l4.6714 4.672 0.3387-6.382-5.796-5.7967-7.9017 0.4215-6.7841-6.7855c-0.1262 0.3041-0.2639 0.6027-0.417 0.896l2.695 2.6931-4.7245 4.7258-2.6943-2.6937c-0.3017 0.1562-0.6104 0.2971-0.9229 0.4252zm-21.968-34.116 0.4194-7.9006-5.7979-5.7965-6.3813 0.3394 4.6713 4.6725c0.8941 0.8936 1.466 2.2936 1.5307 3.7466 0.0692 1.5838-0.4413 3.0043-1.4371 4.0002-0.996 0.996-2.4165 1.5076-3.9996 1.4378-1.4538-0.0633-2.8538-0.636-3.7485-1.5294l-4.6701-4.6726-0.342 6.3826 5.7973 5.7967 7.9005-0.422 6.7854 6.7862c0.1262-0.3037 0.2638-0.6042 0.417-0.8967l-2.6931-2.6938 4.7245-4.7245 2.6924 2.6936c0.3004-0.1556 0.6091-0.2957 0.9229-0.4238zm3.1765 29.592-4.7245-4.7258 2.6931-2.6931c-0.2985-0.5706-0.5445-1.1638-0.7366-1.7722h-3.8087v-6.6848h3.4034l-6.505-6.5054-7.9005 0.4212-6.5094-6.5082 0.50467-9.4215 6.4639 6.4672c0.6994 0.7 1.8195 1.1462 2.9979 1.1988 1.2636 0.0526 2.3812-0.3375 3.1497-1.1072 0.7698-0.7686 1.1637-1.8881 1.1067-3.1502-0.0519-1.1773-0.5002-2.296-1.1995-2.9955l-6.4653-6.4678 9.4203-0.5008 6.5087 6.5087-0.4201 7.9012 6.4876 6.4895v-3.3706h6.6836v3.8094c0.6098 0.1933 1.2028 0.44 1.7734 0.7345l2.6931-2.6936 4.7245 4.7245-2.695 2.6938c0.2959 0.5699 0.5431 1.1631 0.7359 1.7728h3.8093v6.684h-3.4045l6.5042 6.505 7.9024-0.4201 6.5076 6.5082-0.5003 9.4221-6.4665-6.4678c-1.414-1.4141-4.4715-1.7701-6.1482-0.0935-1.6773 1.6773-1.3206 4.7348 0.0929 6.1489l6.4659 6.4646-9.4203 0.50274-6.5087-6.5081 0.4194-7.9024-6.4851-6.4864v3.3687h-6.6836v-3.81c-0.6096-0.1914-1.2047-0.4374-1.774-0.7339z" style="fill:#231f20;fill-rule:evenodd"/>
   <path d="m372.93 347.15c2.8628 0 5.1926-2.3281 5.1926-5.1901 0-2.8622-2.3299-5.1904-5.1926-5.1904-2.8602 0-5.1882 2.3282-5.1882 5.1904 0 2.862 2.328 5.1901 5.1882 5.1901zm0-11.511c3.4878 0 6.3238 2.8354 6.3238 6.3213 0 3.4852-2.8359 6.3217-6.3238 6.3217-3.484 0-6.3198-2.8366-6.3198-6.3217 0-3.4858 2.8359-6.3213 6.3198-6.3213z" style="fill:#231f20;fill-rule:evenodd"/>
  </g>
 </g>
</svg>
