<?xml version="1.0" encoding="UTF-8" standalone="no"?>
<svg xmlns="http://www.w3.org/2000/svg" height="200" width="200" version="1.1" viewBox="0 0 52.916665 52.916668">
 <g transform="translate(0 -244.08)">
  <g transform="matrix(.51563 0 0 -.51563 -19.137 445.52)">
   <path d="m90.207 319c2.4711 0 4.4818-2.01 4.4818-4.4826 0-2.4718-2.0107-4.4817-4.4818-4.4817-2.4719 0-4.4832 2.0099-4.4832 4.4817 0 2.4726 2.0113 4.4826 4.4832 4.4826zm-19.772-6.6987c0-3.3457 2.7211-6.066 6.066-6.066h27.409c3.345 0 6.0669 2.7203 6.0669 6.066v9.3657h-39.544z" style="fill:#fff200;fill-rule:evenodd"/>
   <path d="m109.98 370.47c0 3.3456-2.7219 6.0682-6.0669 6.0682h-27.408c-3.3449 0-6.066-2.7226-6.066-6.0682v-2.3713h39.542z" style="fill:#fff200;fill-rule:evenodd"/>
   <path d="m109.98 312.3c0-3.3458-2.7218-6.066-6.0667-6.066h-27.408c-3.3449 0-6.066 2.7202-6.066 6.066v9.3657h39.542zm-39.542 58.166c0 3.3457 2.7211 6.0683 6.066 6.0683h27.409c3.3449 0 6.0667-2.7226 6.0667-6.0683v-2.3714h-39.544zm39.542-47.512h-39.544v43.853h39.542v-15.653h1.2877v19.312c0 4.0562-3.2997 7.3545-7.3544 7.3545h-27.418c-4.054 0-7.353-3.2983-7.353-7.3545v-58.166c0-4.0549 3.299-7.3531 7.353-7.3531h3.1679l8.6429-7.8162 0.8621 0.9547-7.5863 6.8615h22.322c4.0547 0 7.3544 3.2982 7.3544 7.3531v31.372h-1.2877z" style="fill:#231f20;fill-rule:evenodd"/>
   <path d="m90.207 317.72c1.7606 0 3.1934-1.4328 3.1934-3.1948 0-1.7612-1.4327-3.1948-3.1934-3.1948-1.7628 0-3.197 1.4336-3.197 3.1948 0 1.762 1.4342 3.1948 3.197 3.1948zm0-7.6766c2.4712 0 4.4818 2.01 4.4818 4.4818 0 2.4726-2.0106 4.4826-4.4818 4.4826-2.4719 0-4.4832-2.01-4.4832-4.4826 0-2.4718 2.0113-4.4818 4.4832-4.4818z" style="fill:#231f20;fill-rule:evenodd"/>
   <path d="m106.79 349.98 17.191-15.567v-36.802h1.2863v37.373l-17.613 15.951z" style="fill:#231f20;fill-rule:evenodd"/>
   <path d="m60.336 332.07c0 2.8604 2.3276 5.1873 5.1872 5.1873v1.2877c-2.8596 0-5.1872 2.3239-5.1872 5.1813 0 2.861 2.3276 5.1872 5.1872 5.1872v1.2876c-2.8596 0-5.1872 2.3276-5.1872 5.1873 0 2.8603 2.3276 5.1857 5.1872 5.1857v1.2884c-3.5708 0-6.4749-2.904-6.4749-6.4741 0-2.5623 1.4968-4.7821 3.6619-5.8307-2.1651-1.0479-3.6619-3.2684-3.6619-5.8314 0-2.5608 1.4968-4.7777 3.6619-5.8249-2.1651-1.0486-3.6619-3.2691-3.6619-5.8314 0-2.5877 1.5252-4.8241 3.7231-5.8598-2.1979-1.0362-3.7231-3.272-3.7231-5.8584 0-3.5708 2.904-6.4746 6.4749-6.4746v1.2875c-2.8596 0-5.1872 2.3268-5.1872 5.1871 0 2.8583 2.3276 5.1852 5.1872 5.1852l0.64348 0.0584v1.2875h-0.64348c-2.8596 0-5.1872 2.3268-5.1872 5.1871z" style="fill:#231f20;fill-rule:evenodd"/>
   <path d="m90.201 345.12 4.929 1.2893-3.6409 3.6389z" style="fill:#fff"/>
   <path d="m111.36 366.29-2.0032 2.0036-3.0628-3.062-1.2449-4.7587 2.9349 2.9345 0.49416-0.49416-2.9325-2.9333 4.7568 1.2433 3.0616 3.0628z" style="fill:#99def9;fill-rule:evenodd"/>
   <path d="m110.31 361.22-4.7567-1.2433 2.9325 2.9333-0.4942 0.49416-2.9349-2.9345 1.2449 4.7587 3.0628 3.062 2.0032-2.0036 2.004-2.004zm-15.177-14.809-4.929-1.2892 1.2881 4.9281zm16.729 20.37-2.4978 2.4982-3.6911-3.6904-1.5946-6.0974-10.518-10.519-2.4352 2.4352-1.9002-7.2644 7.2656 1.8999-2.4352 2.4352 10.519 10.519 6.0966 1.5941 3.69 3.6912z" style="fill:#231f20;fill-rule:evenodd"/>
   <path d="m102.26 355.44c2.5877-3.0014 4.0128-6.8399 4.0128-10.807 0-9.1326-7.4303-16.562-16.563-16.562-9.133 0-16.563 7.4299-16.563 16.562 0.0004 9.1329 7.4307 16.563 16.563 16.563 3.9585 0 7.791-1.4195 10.789-3.9969l0.457 0.53099c-3.1266 2.6858-7.1199 4.1652-11.246 4.1652-9.5174 0-17.262-7.7439-17.262-17.262 0-9.5182 7.7443-17.262 17.262-17.262 9.5186 0 17.262 7.7439 17.262 17.262 0 4.1354-1.4848 8.1359-4.1817 11.264z" style="fill:#231f20;fill-rule:evenodd"/>
   <path d="m89.712 356.12c2.6177 0 5.0846-0.85885 7.1333-2.4827l0.434 0.54802c-2.173 1.7232-4.7892 2.634-7.5673 2.634-6.7219 0-12.189-5.4675-12.189-12.188 0-6.7211 5.4675-12.189 12.188-12.189 6.7204 0 12.188 5.4679 12.188 12.189 0 2.7833-0.9621 5.5055-2.7099 7.6643l-0.5441-0.43992c1.6476-2.0352 2.5548-4.6007 2.5548-7.2244 0-6.3355-5.1543-11.49-11.489-11.49-6.335 0-11.489 5.1542-11.489 11.49 0 6.335 5.1539 11.489 11.49 11.489z" style="fill:#231f20;fill-rule:evenodd"/>
   <path d="m89.711 351.55c-3.814 0-6.9163-3.1024-6.9163-6.9155 0-3.8132 3.1024-6.9156 6.9163-6.9156 3.8132 0 6.916 3.1024 6.916 6.9156h-0.6997c0-3.4275-2.7888-6.2162-6.2163-6.2162s-6.2167 2.7887-6.2167 6.2162c0 3.4279 2.7892 6.2162 6.2167 6.2162z" style="fill:#231f20;fill-rule:evenodd"/>
   <path d="m89.298 346.19-0.18175 0.67552c-0.9515-0.2554-1.6385-1.0877-1.709-2.0721-0.08949-1.2722 0.87231-2.3809 2.1445-2.4708 0.05465-0.004 0.1081-0.006 0.16235-0.006 1.0275 0 1.9497 0.68898 2.2289 1.6888l-0.67314 0.18848c-0.20551-0.73412-0.90201-1.2208-1.669-1.1736-0.88736 0.0626-1.5585 0.83588-1.4952 1.7236 0.0491 0.6866 0.52783 1.2679 1.1922 1.4461z" style="fill:#231f20;fill-rule:evenodd"/>
  </g>
 </g>
</svg>
